[
  {
    "id": 2,
    "title": "pippo",
    "status": "published",
    "publish_at": "2020-09-20",
    "user_id": 1,
    "slug": "pippo",
    "created_at": "2020-09-20T15:29:06.014Z",
    "updated_at": "2020-09-20T16:34:27.844Z"
  },
  {
    "id": 3,
    "title": "user is the best",
    "status": "published",
    "publish_at": "2020-09-20",
    "user_id": 2,
    "slug": "user-is-the-best",
    "created_at": "2020-09-20T18:06:21.513Z",
    "updated_at": "2020-09-24T15:34:20.725Z"
  }
]